%YAML 1.1
%TAG !u! tag:unity3d.com,2011:
--- !u!74 &7400000
AnimationClip:
  m_ObjectHideFlags: 0
  m_CorrespondingSourceObject: {fileID: 0}
  m_PrefabInternal: {fileID: 0}
  m_Name: TextJuiceIdle
  serializedVersion: 6
  m_Legacy: 0
  m_Compressed: 0
  m_UseHighQualityCurve: 1
  m_RotationCurves: []
  m_CompressedRotationCurves: []
  m_EulerCurves: []
  m_PositionCurves: []
  m_ScaleCurves:
  - curve:
      serializedVersion: 2
      m_Curve:
      - serializedVersion: 3
        time: 0.05
        value: {x: 1, y: 1, z: 1}
        inSlope: {x: 0.302745, y: 0.3022136, z: 0.19066764}
        outSlope: {x: 0.302745, y: 0.3022136, z: 0.19066764}
        tangentMode: 0
        weightedMode: 0
        inWeight: {x: 0.33333334, y: 0.33333334, z: 0.33333334}
        outWeight: {x: 0.46967107, y: 0.5035525, z: 0.29470387}
      - serializedVersion: 3
        time: 0.41666666
        value: {x: 1.1, y: 1.1, z: 1.1}
        inSlope: {x: 0.27018458, y: 0.2664148, z: 0}
        outSlope: {x: -0.3319527, y: -0.34135526, z: 0}
        tangentMode: 0
        weightedMode: 0
        inWeight: {x: 0.3722156, y: 0.43997845, z: 0.33333334}
        outWeight: {x: 0.18244159, y: 0.21557009, z: 0.33333334}
      - serializedVersion: 3
        time: 1.1666666
        value: {x: 0.9, y: 0.9, z: 0.9}
        inSlope: {x: -0.2419635, y: -0.23686728, z: 0}
        outSlope: {x: 0.24564964, y: 0.2628822, z: 0}
        tangentMode: 0
        weightedMode: 0
        inWeight: {x: 0.19915946, y: 0.23780935, z: 0.33333334}
        outWeight: {x: 0.40974575, y: 0.43135145, z: 0.33333334}
      - serializedVersion: 3
        time: 1.55
        value: {x: 1, y: 1.0012207, z: 1}
        inSlope: {x: 0.2625745, y: 0.27001107, z: 0.19813927}
        outSlope: {x: 0.2625745, y: 0.27001107, z: 0.19813927}
        tangentMode: 0
        weightedMode: 0
        inWeight: {x: 0.42821273, y: 0.42821273, z: 0.30293506}
        outWeight: {x: 0.33333334, y: 0.33333334, z: 0.33333334}
      m_PreInfinity: 2
      m_PostInfinity: 2
      m_RotationOrder: 4
    path: 
  m_FloatCurves: []
  m_PPtrCurves: []
  m_SampleRate: 60
  m_WrapMode: 0
  m_Bounds:
    m_Center: {x: 0, y: 0, z: 0}
    m_Extent: {x: 0, y: 0, z: 0}
  m_ClipBindingConstant:
    genericBindings:
    - serializedVersion: 2
      path: 0
      attribute: 3
      script: {fileID: 0}
      typeID: 4
      customType: 0
      isPPtrCurve: 0
    pptrCurveMapping: []
  m_AnimationClipSettings:
    serializedVersion: 2
    m_AdditiveReferencePoseClip: {fileID: 0}
    m_AdditiveReferencePoseTime: 0
    m_StartTime: 0
    m_StopTime: 1.55
    m_OrientationOffsetY: 0
    m_Level: 0
    m_CycleOffset: 0
    m_HasAdditiveReferencePose: 0
    m_LoopTime: 1
    m_LoopBlend: 0
    m_LoopBlendOrientation: 0
    m_LoopBlendPositionY: 0
    m_LoopBlendPositionXZ: 0
    m_KeepOriginalOrientation: 0
    m_KeepOriginalPositionY: 1
    m_KeepOriginalPositionXZ: 0
    m_HeightFromFeet: 0
    m_Mirror: 0
  m_EditorCurves:
  - curve:
      serializedVersion: 2
      m_Curve:
      - serializedVersion: 3
        time: 0.05
        value: 1
        inSlope: 0.302745
        outSlope: 0.302745
        tangentMode: 0
        weightedMode: 0
        inWeight: 0.33333334
        outWeight: 0.46967107
      - serializedVersion: 3
        time: 0.41666666
        value: 1.1
        inSlope: 0.27018458
        outSlope: -0.3319527
        tangentMode: 1
        weightedMode: 0
        inWeight: 0.3722156
        outWeight: 0.18244159
      - serializedVersion: 3
        time: 1.1666666
        value: 0.9
        inSlope: -0.2419635
        outSlope: 0.24564964
        tangentMode: 1
        weightedMode: 0
        inWeight: 0.19915946
        outWeight: 0.40974575
      - serializedVersion: 3
        time: 1.55
        value: 1
        inSlope: 0.2625745
        outSlope: 0.2625745
        tangentMode: 0
        weightedMode: 0
        inWeight: 0.42821273
        outWeight: 0.33333334
      m_PreInfinity: 2
      m_PostInfinity: 2
      m_RotationOrder: 4
    attribute: m_LocalScale.x
    path: 
    classID: 224
    script: {fileID: 0}
  - curve:
      serializedVersion: 2
      m_Curve:
      - serializedVersion: 3
        time: 0.05
        value: 1
        inSlope: 0.3022136
        outSlope: 0.3022136
        tangentMode: 0
        weightedMode: 0
        inWeight: 0.33333334
        outWeight: 0.5035525
      - serializedVersion: 3
        time: 0.41666666
        value: 1.1
        inSlope: 0.2664148
        outSlope: -0.34135526
        tangentMode: 1
        weightedMode: 0
        inWeight: 0.43997845
        outWeight: 0.21557009
      - serializedVersion: 3
        time: 1.1666666
        value: 0.9
        inSlope: -0.23686728
        outSlope: 0.2628822
        tangentMode: 1
        weightedMode: 0
        inWeight: 0.23780935
        outWeight: 0.43135145
      - serializedVersion: 3
        time: 1.55
        value: 1.0012207
        inSlope: 0.27001107
        outSlope: 0.27001107
        tangentMode: 0
        weightedMode: 0
        inWeight: 0.42821273
        outWeight: 0.33333334
      m_PreInfinity: 2
      m_PostInfinity: 2
      m_RotationOrder: 4
    attribute: m_LocalScale.y
    path: 
    classID: 224
    script: {fileID: 0}
  - curve:
      serializedVersion: 2
      m_Curve:
      - serializedVersion: 3
        time: 0.05
        value: 1
        inSlope: 0.19066764
        outSlope: 0.19066764
        tangentMode: 0
        weightedMode: 0
        inWeight: 0.33333334
        outWeight: 0.29470387
      - serializedVersion: 3
        time: 0.41666666
        value: 1.1
        inSlope: 0
        outSlope: 0
        tangentMode: 136
        weightedMode: 0
        inWeight: 0.33333334
        outWeight: 0.33333334
      - serializedVersion: 3
        time: 1.1666666
        value: 0.9
        inSlope: 0
        outSlope: 0
        tangentMode: 136
        weightedMode: 0
        inWeight: 0.33333334
        outWeight: 0.33333334
      - serializedVersion: 3
        time: 1.55
        value: 1
        inSlope: 0.19813927
        outSlope: 0.19813927
        tangentMode: 0
        weightedMode: 0
        inWeight: 0.30293506
        outWeight: 0.33333334
      m_PreInfinity: 2
      m_PostInfinity: 2
      m_RotationOrder: 4
    attribute: m_LocalScale.z
    path: 
    classID: 224
    script: {fileID: 0}
  m_EulerEditorCurves: []
  m_HasGenericRootTransform: 0
  m_HasMotionFloatCurves: 0
  m_GenerateMotionCurves: 0
  m_Events: []
